{
  "cssProperties" : "",
  "fieldName" : "attribute1",
  "fieldType" : 2,
  "formatType" : "TEXT",
  "label" : "Channel",
  "labelTranslations" : {
    "" : "Channel"
  },
  "readOnly" : false,
  "requiredField" : false
}