{
  "cssProperties" : "",
  "fieldName" : "attribute3",
  "fieldType" : 2,
  "formatType" : "TEXT",
  "label" : "LeadTimeWeeks",
  "labelTranslations" : {
    "" : "Lead Time in Weeks"
  },
  "readOnly" : false,
  "requiredField" : false
}