{
  "allowSearch" : false,
  "businessKey" : [ "sku", "attribute1", "attribute3", "attribute4", "attribute5", "attribute6", "attribute7", "attribute8", "attribute13" ],
  "label" : "Pricing Segments",
  "numberOfAttributes" : 20
}