{
  "description" : "",
  "entityRefTypeCode" : "",
  "fieldType" : 2,
  "formatType" : "TEXT",
  "label" : "ProductID",
  "labelTranslations" : {
    "" : "Article ID"
  },
  "readOnly" : false,
  "requiredField" : false
}