{
  "aggregation" : false,
  "auxiliary" : false,
  "calculated" : false,
  "deleted" : false,
  "deployed" : true,
  "dimension" : true,
  "expression" : "PPRetailValidFrom",
  "key" : true,
  "label" : "PP Retail Valid From",
  "labelTranslations" : { },
  "numeric" : false,
  "owningFC" : "Historical  HAWA Purchase Prices",
  "partitioningKey" : false,
  "persisted" : true,
  "queryable" : true,
  "source" : "DMDS.HistoricalHAWAPurchasePrices",
  "sourceField" : "attribute8",
  "system" : false,
  "time" : true,
  "type" : "DATE",
  "visibility" : 1
}