{
  "areDefault" : true,
  "areGlobal" : true,
  "columnLabels" : "{}",
  "filter" : {
    "_constructor" : "AdvancedCriteria",
    "criteria" : [ {
      "fieldName" : "sku",
      "operator" : "equals",
      "value" : "Germany"
    } ],
    "operator" : "and"
  },
  "preferenceName" : "default",
  "viewState" : "({\"field\":[{\"frozen\":false,\"name\":\"typedId\",\"visible\":false},{\"frozen\":false,\"name\":\"sku\",\"visible\":true,\"width\":79},{\"frozen\":false,\"name\":\"attribute1\",\"visible\":true,\"width\":110},{\"frozen\":false,\"name\":\"attribute3\",\"visible\":true,\"width\":61},{\"frozen\":false,\"name\":\"attribute4\",\"visible\":true,\"width\":88},{\"frozen\":false,\"name\":\"attribute5\",\"visible\":true,\"width\":73},{\"frozen\":false,\"name\":\"attribute6\",\"visible\":true,\"width\":109},{\"frozen\":false,\"name\":\"attribute7\",\"visible\":true,\"width\":81},{\"frozen\":false,\"name\":\"attribute8\",\"visible\":true,\"width\":115},{\"frozen\":false,\"name\":\"attribute10\",\"visible\":true,\"width\":66},{\"frozen\":false,\"name\":\"attribute12\",\"visible\":true,\"width\":174},{\"frozen\":false,\"name\":\"attribute11\",\"visible\":false,\"width\":111},{\"frozen\":false,\"name\":\"attribute13\",\"visible\":true,\"width\":174},{\"frozen\":false,\"name\":\"lastUpdateDate\",\"visible\":true,\"width\":150},{\"frozen\":false,\"name\":\"attribute2\",\"visible\":false,\"width\":94},{\"frozen\":false,\"name\":\"attribute9\",\"visible\":false,\"width\":88},{\"frozen\":false,\"name\":\"attribute14\",\"visible\":false},{\"frozen\":false,\"name\":\"attribute15\",\"visible\":false},{\"frozen\":false,\"name\":\"attribute16\",\"visible\":false},{\"frozen\":false,\"name\":\"attribute17\",\"visible\":false},{\"frozen\":false,\"name\":\"attribute18\",\"visible\":false},{\"frozen\":false,\"name\":\"attribute19\",\"visible\":false},{\"frozen\":false,\"name\":\"attribute20\",\"visible\":false}],\"sort\":null,\"extraOptions\":{}})"
}