{
  "aggregation" : false,
  "auxiliary" : true,
  "calculated" : false,
  "deleted" : false,
  "deployed" : true,
  "dimension" : false,
  "expression" : "isDeleted",
  "key" : false,
  "label" : "IsDeleted",
  "labelTranslations" : { },
  "numeric" : false,
  "owningFC" : "[System]",
  "partitioningKey" : false,
  "persisted" : true,
  "queryable" : false,
  "source" : "DMDS.ArticleSellingPrice_1",
  "system" : true,
  "time" : false,
  "type" : "BOOLEAN",
  "visibility" : 0
}