{
  "hideWarnings" : false,
  "isPlasma" : false,
  "label" : "MC Channel Basket Mapping",
  "status" : "ACTIVE",
  "type" : "MATRIX",
  "uniqueName" : "MCChannelBasketMapping",
  "validAfter" : "2021-05-10",
  "valueType" : "MATRIX3"
}