{
  "hideWarnings" : false,
  "isPlasma" : false,
  "label" : "Archiving Configuration",
  "status" : "ACTIVE",
  "type" : "MATRIX",
  "uniqueName" : "ArchivingConfiguration",
  "validAfter" : "2021-01-01",
  "valueType" : "MATRIX"
}