{
  "elements" : [ {
    "allowOverride" : false,
    "combinationType" : "FUNCTION",
    "displayOptions" : 0,
    "elementGroups" : [ ],
    "elementLabel" : "Abort Calculation",
    "elementName" : "AbortCalculation",
    "elementTimeout" : 0,
    "hideOnNull" : false,
    "hideWarnings" : false,
    "protectedExpression" : false,
    "summarize" : false
  }, {
    "allowOverride" : false,
    "combinationType" : "FUNCTION",
    "displayOptions" : 0,
    "elementGroups" : [ ],
    "elementLabel" : "Retain Global",
    "elementName" : "RetainGlobal",
    "elementTimeout" : 0,
    "hideOnNull" : false,
    "hideWarnings" : false,
    "protectedExpression" : false,
    "summarize" : false
  }, {
    "allowOverride" : false,
    "combinationType" : "FUNCTION",
    "displayOptions" : 0,
    "elementGroups" : [ ],
    "elementLabel" : "Constants",
    "elementName" : "Constants",
    "elementTimeout" : 0,
    "hideOnNull" : false,
    "hideWarnings" : false,
    "protectedExpression" : false,
    "summarize" : false
  }, {
    "allowOverride" : false,
    "combinationType" : "FUNCTION",
    "displayOptions" : 16,
    "elementGroups" : [ ],
    "elementName" : "Lib",
    "elementTimeout" : 0,
    "hideOnNull" : false,
    "hideWarnings" : false,
    "protectedExpression" : false,
    "summarize" : false
  }, {
    "allowOverride" : false,
    "combinationType" : "FUNCTION",
    "displayOptions" : 16,
    "elementGroups" : [ ],
    "elementName" : "Init",
    "elementTimeout" : 0,
    "hideOnNull" : false,
    "hideWarnings" : false,
    "protectedExpression" : false,
    "summarize" : false
  }, {
    "allowOverride" : false,
    "combinationType" : "FUNCTION",
    "displayOptions" : 0,
    "elementGroups" : [ ],
    "elementLabel" : "ArticalNo",
    "elementName" : "ArticalNo",
    "elementTimeout" : 0,
    "hideOnNull" : false,
    "hideWarnings" : false,
    "protectedExpression" : false,
    "summarize" : false
  }, {
    "allowOverride" : false,
    "combinationType" : "FUNCTION",
    "displayOptions" : 0,
    "elementGroups" : [ ],
    "elementLabel" : "ArticleCache",
    "elementName" : "ArticleCache",
    "elementTimeout" : 0,
    "hideOnNull" : false,
    "hideWarnings" : false,
    "protectedExpression" : false,
    "summarize" : false
  }, {
    "allowOverride" : false,
    "combinationType" : "FUNCTION",
    "displayOptions" : 0,
    "elementGroups" : [ ],
    "elementLabel" : "Country",
    "elementName" : "Country",
    "elementTimeout" : 0,
    "formatType" : "TEXT",
    "hideOnNull" : false,
    "hideWarnings" : false,
    "protectedExpression" : false,
    "summarize" : false
  }, {
    "allowOverride" : false,
    "combinationType" : "FUNCTION",
    "displayOptions" : 0,
    "elementGroups" : [ ],
    "elementLabel" : "GenerateItemClassBasket",
    "elementName" : "GenerateItemClassBasket",
    "elementTimeout" : 0,
    "hideOnNull" : false,
    "hideWarnings" : false,
    "protectedExpression" : false,
    "summarize" : false
  }, {
    "allowOverride" : false,
    "combinationType" : "FUNCTION",
    "displayOptions" : 16,
    "elementGroups" : [ ],
    "elementLabel" : "Item Class",
    "elementName" : "ItemClass",
    "elementTimeout" : 0,
    "hideOnNull" : false,
    "hideWarnings" : false,
    "protectedExpression" : false,
    "summarize" : false
  }, {
    "allowOverride" : false,
    "combinationType" : "FUNCTION",
    "displayOptions" : 16,
    "elementGroups" : [ ],
    "elementLabel" : "Basket",
    "elementName" : "Basket",
    "elementTimeout" : 0,
    "hideOnNull" : false,
    "hideWarnings" : false,
    "protectedExpression" : false,
    "summarize" : false
  }, {
    "allowOverride" : false,
    "combinationType" : "FUNCTION",
    "displayOptions" : 16,
    "elementGroups" : [ ],
    "elementLabel" : "Failure Reason",
    "elementName" : "FailureReason",
    "elementTimeout" : 0,
    "hideOnNull" : false,
    "hideWarnings" : false,
    "protectedExpression" : false,
    "summarize" : false
  } ],
  "inputDescriptors" : [ ],
  "label" : "CFS Generate ItemClass and Basket",
  "status" : "ACTIVE",
  "uniqueName" : "CFS_GenerateItemClassBasket",
  "validAfter" : "2019-01-01"
}