{
  "cssProperties": "",
  "fieldName": "key1",
  "fieldType": 2,
  "formatType": "TEXT",
  "label": "fromCurrency",
  "labelTranslations": {
    "": "From Currency"
  },
  "readOnly": false,
  "requiredField": true
}