{
  "fieldName": "key4",
  "fieldType": 2,
  "fieldValueOptions": {
    "ValuesRestrictedByDSConfig": true,
    "attributedFieldType": 0,
    "dataSourceConfig": {
      "autoConvertRelativeDates": true,
      "defaultTextMatchStyle": "exact",
      "dropUnknownCriteria": true,
      "ignoreTextMatchStyleCaseSensitive": false,
      "patternEscapeChar": "\\",
      "patternMultiWildcard": "*",
      "patternSingleWildcard": [
        "?",
        "%"
      ],
      "translatePatternOperators": false,
      "trimMilliseconds": null,
      "useHttpProxy": null,
      "useStrictJSON": null
    },
    "dataSourceLabel": "Price Parameter Values : Brand",
    "fetchUrl_target": {
      "simulationSet": null,
      "uniqueName": "Brand",
      "validAfter": "2021-05-10"
    },
    "fieldConfig": {
      "dateFormatter": null,
      "decimalPad": null,
      "decimalPrecision": null,
      "editorType": null,
      "escapeHTML": true,
      "format": null,
      "optionTextMatchStyle": null,
      "precision": null,
      "readOnlyEditorType": null
    },
    "fieldLabel": "Value",
    "fieldName": "value",
    "fieldType": "text"
  },
  "label": "brand",
  "labelTranslations": {
    "": "Brand"
  },
  "readOnly": false,
  "requiredField": false
}