{
  "areDefault": true,
  "areGlobal": true,
  "columnLabels": "{}",
  "instance": {
    "simulationSet": null,
    "type": "LT",
    "uniqueName": "Baskets",
    "validAfter": "2021-05-10"
  },
  "preferenceName": "default",
  "viewState": "({\"field\":[{\"frozen\":false,\"name\":\"key1\",\"visible\":true,\"width\":73},{\"frozen\":false,\"name\":\"key2\",\"visible\":true,\"width\":66},{\"frozen\":false,\"name\":\"attribute1\",\"visible\":true,\"width\":386},{\"frozen\":false,\"name\":\"attribute2\",\"visible\":true,\"width\":765},{\"frozen\":false,\"name\":\"attribute3\",\"visible\":false},{\"frozen\":false,\"name\":\"attribute4\",\"visible\":false},{\"frozen\":false,\"name\":\"attribute5\",\"visible\":false},{\"frozen\":false,\"name\":\"attribute6\",\"visible\":false},{\"frozen\":false,\"name\":\"attribute7\",\"visible\":false},{\"frozen\":false,\"name\":\"attribute8\",\"visible\":false},{\"frozen\":false,\"name\":\"attribute9\",\"visible\":false},{\"frozen\":false,\"name\":\"attribute10\",\"visible\":false},{\"frozen\":false,\"name\":\"attribute11\",\"visible\":false},{\"frozen\":false,\"name\":\"attribute12\",\"visible\":false},{\"frozen\":false,\"name\":\"attribute13\",\"visible\":false},{\"frozen\":false,\"name\":\"attribute14\",\"visible\":false},{\"frozen\":false,\"name\":\"attribute15\",\"visible\":false},{\"frozen\":false,\"name\":\"attribute16\",\"visible\":false},{\"frozen\":false,\"name\":\"attribute17\",\"visible\":false},{\"frozen\":false,\"name\":\"attribute18\",\"visible\":false},{\"frozen\":false,\"name\":\"attribute19\",\"visible\":false},{\"frozen\":false,\"name\":\"attribute20\",\"visible\":false},{\"frozen\":false,\"name\":\"attribute21\",\"visible\":false},{\"frozen\":false,\"name\":\"attribute22\",\"visible\":false},{\"frozen\":false,\"name\":\"attribute23\",\"visible\":false},{\"frozen\":false,\"name\":\"attribute24\",\"visible\":false},{\"frozen\":false,\"name\":\"attribute25\",\"visible\":false},{\"frozen\":false,\"name\":\"attribute26\",\"visible\":false},{\"frozen\":false,\"name\":\"attribute27\",\"visible\":false},{\"frozen\":false,\"name\":\"attribute28\",\"visible\":false},{\"frozen\":false,\"name\":\"attribute29\",\"visible\":false},{\"frozen\":false,\"name\":\"attribute30\",\"visible\":false},{\"frozen\":false,\"name\":\"createDate\",\"visible\":false},{\"frozen\":false,\"name\":\"createdBy\",\"visible\":false},{\"frozen\":false,\"name\":\"lastUpdateDate\",\"visible\":false},{\"frozen\":false,\"name\":\"lastUpdateBy\",\"visible\":false}],\"sort\":null,\"extraOptions\":{}})"
}