{
  "fieldType" : 1,
  "formatType" : "NUMERIC_LONG",
  "label" : "3N_PP_OfflineWholesale",
  "labelTranslations" : {
    "" : "3N PP Offline Wholesale"
  },
  "readOnly" : false,
  "requiredField" : false
}