{
  "areDefault": true,
  "areGlobal": true,
  "preferenceName": "default",
  "viewState": "({\"field\":[{\"name\":\"typedId\",\"visible\":false},{\"name\":\"loginName\",\"visible\":true,\"width\":264},{\"name\":\"email\",\"visible\":true,\"width\":253},{\"name\":\"firstName\",\"visible\":true,\"width\":98},{\"name\":\"lastName\",\"visible\":true,\"width\":113},{\"name\":\"activated\",\"visible\":true,\"width\":83},{\"name\":\"ssoOnly\",\"visible\":true,\"width\":145},{\"name\":\"passwordExpiry\",\"visible\":true,\"width\":132},{\"name\":\"defaultUserGroupEdit\",\"visible\":true,\"width\":179},{\"name\":\"defaultUserGroupViewDetails\",\"visible\":true,\"width\":185},{\"name\":\"emailLocale\",\"visible\":true,\"width\":96},{\"name\":\"wizardDashboardName\",\"visible\":true,\"width\":137},{\"name\":\"lastLogin\",\"visible\":true,\"width\":134},{\"name\":\"productFilterCriteria\",\"visible\":true,\"width\":107},{\"name\":\"customerFilterCriteria\",\"visible\":true,\"width\":118},{\"name\":\"additionalInfo1\",\"visible\":true,\"width\":157},{\"name\":\"additionalInfo2\",\"visible\":true,\"width\":157},{\"name\":\"additionalInfo3\",\"visible\":true,\"width\":134},{\"name\":\"additionalInfo4\",\"visible\":true,\"width\":134},{\"name\":\"workflowEmailingActivated\",\"visible\":true,\"width\":139},{\"name\":\"noSession\",\"visible\":true,\"width\":92},{\"name\":\"receiveAdminEmail\",\"visible\":true,\"width\":156},{\"name\":\"requireTFA\",\"visible\":true,\"width\":104}],\"sort\":null,\"extraOptions\":{}})"
}