{
  "hideWarnings" : false,
  "isPlasma" : false,
  "label" : "Triple Net Factor",
  "status" : "ACTIVE",
  "type" : "MATRIX",
  "uniqueName" : "TripleNetFactor",
  "validAfter" : "2021-01-01",
  "valueType" : "MATRIX4"
}