{
  "cssProperties" : "",
  "fieldName" : "attribute6",
  "fieldType" : 1,
  "formatType" : "NUMERIC",
  "label" : "DeviationFactorMax",
  "labelTranslations" : {
    "" : "Deviation Factor Max (Upper Threshold)"
  },
  "readOnly" : false,
  "requiredField" : false
}