{
  "cssProperties" : "",
  "fieldName" : "attribute3",
  "fieldType" : 2,
  "formatType" : "TEXT",
  "label" : "Country",
  "labelTranslations" : {
    "" : "Country"
  },
  "readOnly" : false,
  "requiredField" : false
}