{
  "cssProperties" : "",
  "fieldName" : "attribute2",
  "fieldType" : 2,
  "formatType" : "TEXT",
  "label" : "ClusterF/NF",
  "labelTranslations" : {
    "" : "Cluster F/NF"
  },
  "requiredField" : false
}