{
  "aggregation" : false,
  "auxiliary" : false,
  "calculated" : false,
  "deleted" : false,
  "deployed" : true,
  "dimension" : false,
  "expression" : "CCYOfflineWholesale",
  "key" : false,
  "label" : "CCY Offline Wholesale",
  "labelTranslations" : { },
  "numeric" : false,
  "owningFC" : "HAWA Purchase Prices (All)",
  "partitioningKey" : false,
  "persisted" : true,
  "queryable" : true,
  "source" : "DMDS.PurchasePrice_1",
  "sourceField" : "attribute4",
  "system" : false,
  "time" : false,
  "type" : "TEXT",
  "visibility" : 1
}