{
  "fieldName": "attribute1",
  "fieldType": 2,
  "formatType": "TEXT",
  "label": "groceryDriven",
  "labelTranslations": {
    "": "Grocery Driven"
  },
  "readOnly": false,
  "requiredField": false
}