{
  "cssProperties": "",
  "fieldName": "key1",
  "fieldType": 2,
  "formatType": "TEXT",
  "label": "country",
  "labelTranslations": {
    "": "Country"
  },
  "readOnly": false,
  "requiredField": true
}