{
  "cssProperties" : "",
  "fieldType" : 2,
  "formatType" : "TEXT",
  "label" : "FNSalesUnit_VME",
  "labelTranslations" : {
    "" : "FN Sales Unit(VME)"
  },
  "readOnly" : false,
  "requiredField" : false
}