{
  "cssProperties" : "",
  "fieldType" : 2,
  "formatType" : "TEXT",
  "label" : "Product Unit",
  "labelTranslations" : {
    "" : "Content Unit"
  },
  "readOnly" : false,
  "requiredField" : false
}