{
  "cssProperties" : "",
  "fieldName" : "attribute6",
  "fieldType" : 2,
  "formatType" : "TEXT",
  "label" : "ExceptionKey",
  "labelTranslations" : {
    "" : "Exception Key (Multiple ValidFrom)"
  },
  "readOnly" : false,
  "requiredField" : false
}