{
  "cssProperties" : "",
  "fieldName" : "attribute7",
  "fieldType" : 2,
  "fieldValueOptions" : "[\"Yes\",\"No\"]",
  "formatType" : "TEXT",
  "label" : "RemoveInactiveData",
  "labelTranslations" : {
    "" : "Remove Inactive Data"
  },
  "readOnly" : false,
  "requiredField" : false
}