{
  "fieldName" : "attribute1",
  "fieldType" : 2,
  "fieldValueOptions" : "[\"PX\",\"CP\",\"CX\",\"PCOMP\"]",
  "formatType" : "TEXT",
  "label" : "SourceTypeCode",
  "labelTranslations" : {
    "" : "Source Type Code"
  },
  "readOnly" : false,
  "requiredField" : false
}