{
  "hideWarnings": false,
  "isPlasma": false,
  "label": "Article Status",
  "status": "ACTIVE",
  "type": "SIMPLE",
  "uniqueName": "ArticleStatus",
  "validAfter": "2021-05-10",
  "valueType": "STRING"
}