{
  "fieldName" : "key2",
  "fieldType" : 2,
  "formatType" : "TEXT",
  "label" : "Storenumber",
  "labelTranslations" : {
    "" : "Store number"
  },
  "readOnly" : false,
  "requiredField" : true
}