{
  "fieldType" : 2,
  "fieldValueOptions" : {
    "ValuesRestrictedByDSConfig" : true,
    "criteriaJson" : null,
    "dataSourceLabel" : "ItemClass_PP",
    "fetchUrl" : "lookuptablemanager.fetch/985?onConflict=validationError&isc_dataFormat=json",
    "fieldLabel" : "Value",
    "fieldName" : "value"
  },
  "formatType" : "TEXT",
  "label" : "attribute9",
  "labelTranslations" : {
    "" : "attribute9"
  },
  "readOnly" : false,
  "requiredField" : false
}