{
  "fieldType" : 2,
  "fieldValueOptions" : {
    "ValuesRestrictedByDSConfig" : true,
    "criteriaJson" : null,
    "dataSourceLabel" : "Pricing Ap",
    "fetchUrl" : "lookuptablemanager.fetch/1140?onConflict=validationError&isc_dataFormat=json",
    "fieldLabel" : "Value",
    "fieldName" : "value"
  },
  "formatType" : "TEXT",
  "label" : "PricingApproach2",
  "labelTranslations" : {
    "" : "Pricing Approach 2"
  },
  "readOnly" : false,
  "requiredField" : true
}