{
  "description" : "",
  "entityRefTypeCode" : "",
  "fieldType" : 2,
  "fieldValueOptions" : {
    "ValuesRestrictedByDSConfig" : true,
    "criteriaJson" : null,
    "dataSourceLabel" : "Sub Cat",
    "fetchUrl" : "lookuptablemanager.fetch/1009?onConflict=validationError&isc_dataFormat=json",
    "fieldLabel" : "Value",
    "fieldName" : "value"
  },
  "formatType" : "TEXT",
  "label" : "SubCategory",
  "labelTranslations" : {
    "" : "Sub Category"
  },
  "readOnly" : false,
  "requiredField" : false
}