{
  "cssProperties" : "",
  "fieldName" : "attribute2",
  "fieldType" : 1,
  "formatType" : "NUMERIC",
  "label" : "MINPriceChange",
  "labelTranslations" : {
    "" : "MIN Price Change (abs)"
  },
  "readOnly" : false,
  "requiredField" : false
}