{
  "cssProperties" : "",
  "fieldName" : "attribute1",
  "fieldType" : 1,
  "formatType" : "PERCENT",
  "label" : "MAXChangeRate",
  "labelTranslations" : {
    "" : "MAX Change Rate (%)"
  },
  "readOnly" : false,
  "requiredField" : false
}