{
  "fieldName": "attribute3",
  "fieldType": 1,
  "formatType": "MONEY",
  "label": "miscellaneousPrice",
  "labelTranslations": {
    "": "Miscellaneous Price"
  },
  "readOnly": false,
  "requiredField": false
}